{
  "data": [
    {
      "id": "596ad7622df1731de500015e",
      "type": "test_file_reports",
      "attributes": {
        "coverage": [4, 4, 4, 4, null, 4, null, 4, 6, 2, null, 2, null, null, null, 1, null, null, 1, null, null, 4, 6, 3, null, 3, null, 3, 2, 2, null, 1, null, null, null, 4, null, 4, 6, null, null, 4, null, null, 3, null, null, 4, 2, 2, 2, null, 2, null, null, null, null, null, null, 4, 2, 1, null, 1, null, null, null, null],
        "covered_percent": 100,
        "covered_strength": 1.2,
        "path": "lib\/book.rb",
        "line_counts": {
          "missed": 0,
          "covered": 33,
          "total": 33
        }
      }
    },
    {
      "id": "596ad7622df1731de5000147",
      "type": "test_file_reports",
      "attributes": {
        "coverage": [4, 4, 4, null, 4, null, 4, 12, 5, null, 5, 1, null, null, 4, 1, null, null, 3, 1, null, null, 2, 2, null, null, 4, null, 4, 1, 1, null, null, 4, 1, null, null, null, null, null, 4, 1, null, null, null, null, null, 4, 2, null, 2, null, null, null, 4, 24, null, null, 4, 1, 1, null, null, null, null, 1, null, null, 4, 5, null, null, null],
        "covered_percent": 100,
        "covered_strength": 1.3,
        "path": "lib\/group.rb",
        "line_counts": {
          "missed": 0,
          "covered": 34,
          "total": 34
        }
      }
    },
    {
      "id": "596ad762e13a1a6a9d0000a8",
      "type": "test_file_reports",
      "attributes": {
        "coverage": [4, 4, 4, null, 4, null, 4, 4, 6, null, 2, null, null, null],
        "covered_percent": 100,
        "covered_strength": 1.4,
        "path": "lib\/user.rb",
        "line_counts": {
          "missed": 0,
          "covered": 8,
          "total": 8
        }
      }
    }
  ],
  "links": {
    "self": "https:\/\/api.codeclimate.com\/v1\/repos\/696a76232df2736347000001\/test_reports\/596ad7629c5b3756bc000003\/test_file_reports?page%5Bnumber%5D=1&page%5Bsize%5D=3",
    "next": "https:\/\/api.codeclimate.com\/v1\/repos\/696a76232df2736347000001\/test_reports\/596ad7629c5b3756bc000003\/test_file_reports?page%5Bnumber%5D=2&page%5Bsize%5D=3",
    "last": "https:\/\/api.codeclimate.com\/v1\/repos\/696a76232df2736347000001\/test_reports\/596ad7629c5b3756bc000003\/test_file_reports?page%5Bnumber%5D=307&page%5Bsize%5D=3"
  }
}